Latitud;Longitud
-44.98;-75.85
-44.89;-75.83
-44.80;-75.82
-44.64;-75.81
-44.55;-75.81
-44.46;-75.8
-44.37;-75.8
-44.30;-75.79
-44.21;-75.79
-44.09;-75.78
-44.00;-75.76
-43.91;-75.73
-43.83;-75.7
-43.74;-75.67
-43.65;-75.63
-43.56;-75.62
-43.47;-75.61
-43.41;-75.61
-43.32;-75.6
-43.23;-75.59
-43.14;-75.58
-43.05;-75.57
-42.93;-75.55
-42.71;-75.5
-42.63;-75.48
-42.45;-75.44
-41.81;-75.4
-41.72;-75.4
-41.63;-75.39
-41.50;-75.39
-41.45;-75.39
-41.36;-75.39
-41.27;-75.35
-41.16;-75.31
-40.87;-75.19
-40.78;-75.19
-40.68;-75.19
-40.59;-75.19
-40.50;-75.19
-40.44;-75.19
-40.35;-75.19
-40.26;-75.18
-40.12;-75.17
-40.03;-75.15
-39.94;-75.14
-39.85;-75.13
-39.76;-75.13
-39.86;-75.13
-39.66;-75.14
-39.43;-75.11
-39.34;-75.08
-39.19;-75.03
-39.10;-75
-39.02;-74.97
-38.91;-74.94
-38.82;-74.92
-38.73;-74.89
-38.64;-74.86
-38.55;-74.84
-38.47;-74.8
-38.37;-74.76
-38.26;-74.71
-38.17;-74.67
-38.06;-74.65
-37.98;-74.64
-37.89;-74.63
-37.79;-74.62
-37.70;-74.61
-37.61;-74.6
-37.54;-74.59
-37.45;-74.57
-37.36;-74.56
-37.27;-74.54
-37.18;-74.53
-37.08;-74.51
-36.99;-74.49
-36.90;-74.47
-36.82;-74.46
-36.72;-74.44
-36.64;-74.41
-36.55;-74.39
-36.46;-74.36
-36.38;-74.33
-36.30;-74.3
-36.20;-74.27
-36.12;-74.23
-36.03;-74.18
-35.93;-74.12
-35.84;-74.06
-35.76;-74.01
-35.69;-73.97
-35.63;-73.93
-35.57;-73.89
-35.48;-73.87
-35.40;-73.84
-35.33;-73.82
-35.24;-73.79
-35.13;-73.75
-35.06;-73.73
-34.99;-73.71
-34.89;-73.68
-34.83;-73.63
-34.74;-73.57
-34.65;-73.5
-34.56;-73.44
-34.48;-73.38
-34.39;-73.32
-34.31;-73.26
-34.22;-73.2
-34.13;-73.14
-34.05;-73.08
-33.96;-73.02
-33.87;-72.96
-33.79;-72.93
-33.71;-72.92
-33.62;-72.9
-33.53;-72.89
-33.44;-72.87
-33.36;-72.86
-33.27;-72.87
-33.18;-72.87
-33.09;-72.87
-33.00;-72.88
-32.91;-72.88
-32.82;-72.89
-32.73;-72.89
-32.78;-72.89
-32.68;-72.87
-32.58;-72.84
-32.48;-72.81
-32.38;-72.78
-32.28;-72.76
-32.18;-72.75
-32.10;-72.74
-32.00;-72.73
-31.92;-72.72
-31.82;-72.71
-31.72;-72.7
-31.63;-72.69
-31.53;-72.68
-31.44;-72.67
-31.34;-72.66
-31.24;-72.65
-31.15;-72.64
-31.06;-72.63
-30.97;-72.62
-30.87;-72.62
-30.78;-72.61
-30.68;-72.61
-30.59;-72.61
-30.49;-72.61
-30.39;-72.6
-30.28;-72.6
-30.20;-72.6
-30.11;-72.59
-30.02;-72.59
-29.92;-72.58
-29.83;-72.58
-29.73;-72.57
-29.64;-72.56
-29.55;-72.56
-29.46;-72.54
-29.37;-72.52
-29.27;-72.5
-29.17;-72.48
-29.08;-72.47
-28.99;-72.45
-28.89;-72.43
-28.79;-72.39
-28.70;-72.35
-28.59;-72.3
-28.49;-72.26
-28.39;-72.22
-28.28;-72.17
-28.18;-72.13
-28.07;-72.08
-27.96;-72.04
-27.75;-71.96
-27.66;-71.94
-27.57;-71.92
-27.48;-71.9
-27.38;-71.88
-27.30;-71.86
-27.21;-71.84
-27.12;-71.83
-27.03;-71.81
-26.95;-71.8
-26.87;-71.79
-26.78;-71.77
-26.70;-71.76
-26.62;-71.75
-26.62;-71.75
-26.51;-71.73
-26.41;-71.72
-26.31;-71.7
-26.22;-71.69
-26.14;-71.67
-26.03;-71.66
-25.93;-71.64
-25.83;-71.63
-25.74;-71.61
-25.54;-71.59
-25.55;-71.59
-25.45;-71.57
-25.35;-71.56
-25.19;-71.54
-25.10;-71.52
-24.99;-71.52
-24.90;-71.51
-24.82;-71.51
-24.73;-71.5
-24.65;-71.49
-24.56;-71.49
-24.46;-71.48
-24.37;-71.47
-24.28;-71.47
-24.19;-71.46
-24.11;-71.45
-24.02;-71.44
-23.93;-71.43
-23.84;-71.42
-23.75;-71.41
-23.65;-71.4
-23.56;-71.39
-23.47;-71.39
-23.38;-71.38
-23.25;-71.37
-23.17;-71.37
-23.06;-71.36
-22.96;-71.36
-22.86;-71.35
-22.77;-71.35
-22.66;-71.34
-22.59;-71.34
-22.50;-71.33
-22.41;-71.33
-22.28;-71.32
-22.19;-71.32
-22.04;-71.31
-21.95;-71.31
-21.85;-71.3
-21.75;-71.29
-21.66;-71.28
-21.59;-71.28
-21.47;-71.27
-21.36;-71.26
-21.27;-71.25
-21.17;-71.26
-21.17;-71.26
-21.17;-71.26
-21.33;-71.25
-21.16;-71.26
-21.07;-71.28
-20.99;-71.29
-20.89;-71.3
-20.84;-71.31
-20.76;-71.32
-20.65;-71.33
-20.55;-71.34
-20.47;-71.35
-20.35;-71.35
-20.32;-71.36
-20.22;-71.37
-20.14;-71.39
-20.03;-71.42
-19.94;-71.45
-19.84;-71.48
-19.75;-71.52
-19.67;-71.56
-19.59;-71.6
-19.51;-71.64
-19.42;-71.68
-19.34;-71.72
-19.26;-71.78
-19.19;-71.84
-19.13;-71.9
-19.06;-71.96
-18.99;-72.02
-18.94;-72.07
-18.87;-72.14
-18.80;-72.2
-18.73;-72.26
-18.67;-72.32
-18.60;-72.38
-18.54;-72.45
-18.48;-72.51
-18.06;-72.99
-18.01;-73.06
-17.95;-73.13
-17.90;-73.21
-17.84;-73.28
-17.78;-73.35
-17.73;-73.43
-17.67;-73.51
-17.62;-73.58
-17.57;-73.65
-17.52;-73.74
-17.48;-73.8
-17.42;-73.88
-17.37;-73.96
-17.32;-74.01
-17.26;-74.08
-17.20;-74.16
-17.14;-74.23
-17.08;-74.3
-17.03;-74.36
-16.97;-74.44
-16.92;-74.5
-16.85;-74.57
-16.80;-74.65
-16.74;-74.72
-16.68;-74.8
-16.63;-74.88
-16.57;-74.95
-16.51;-75.04
-16.45;-75.13
-16.40;-75.2
-16.34;-75.28
-16.28;-75.35
-16.22;-75.41
-16.16;-75.47
-16.09;-75.55
-16.03;-75.6
-15.97;-75.67
-15.90;-75.74
-15.82;-75.83
-15.75;-75.9
-15.68;-75.97
-15.62;-76.02
-15.56;-76.09
-15.49;-76.15
-15.42;-76.21
-15.35;-76.28
-15.28;-76.34
-15.22;-76.4
-15.15;-76.47
-15.09;-76.53
-15.01;-76.6
-14.96;-76.66
-14.89;-76.72
-14.82;-76.78
-14.76;-76.85
-14.69;-76.91
-14.62;-76.98
-14.55;-77.05
-14.47;-77.12
-14.41;-77.18
-14.33;-77.26
-14.26;-77.32
-14.17;-77.4
-14.09;-77.48
-14.01;-77.55
-13.95;-77.61
-13.88;-77.67
-13.81;-77.74
-13.75;-77.8
-13.31;-78.2
-12.75;-78.59
-12.67;-78.64
-12.44;-78.79
-12.37;-78.84
-12.30;-78.89
-12.23;-78.93
-12.18;-78.96
-12.10;-79.01
-12.02;-79.06
-11.95;-79.11
-11.88;-79.16
-11.80;-79.22
-11.73;-79.28
-11.65;-79.33
-11.58;-79.39
-11.51;-79.45
-11.45;-79.49
-11.38;-79.55
-11.31;-79.61
-11.23;-79.65
-11.15;-79.69
-11.07;-79.73
-10.99;-79.78
-10.91;-79.82
-10.83;-79.86
-10.75;-79.9
-10.67;-79.94
-10.59;-79.98
