lon_central;lat_central;slip_upper
-71.10287973898893;-32.97751189432465;1
-71.05849516524607;-32.698716895161255;0
-71.02435140096097;-32.41912392644849;1
-70.99429517257386;-32.13920795406817;0
-70.96442200877723;-31.859272492921033;1
-70.93472884019276;-31.579317719396506;0
-70.90521265099174;-31.299343809021103;1
-70.87587047758856;-31.01935093650355;0
-70.86525202805116;-30.73786459756661;1
-70.86012439334169;-30.45592279052819;0
-70.85492751304871;-30.173966088243915;1
-70.83970488128203;-29.892798983142306;0
-70.81445797688656;-29.612431478534067;1
-70.75927248656502;-29.33448534295075;0
-71.81262200003374;-32.920461316604786;1
-71.76602773596694;-32.64168524959562;0
-71.72969823967806;-32.362111089626175;1
-71.69748388774451;-32.082213807010845;0
-71.66548231281737;-31.802296921669353;1
-71.63369007951381;-31.522360612342904;0
-71.60210381346472;-31.24240505687182;1
-71.57072019984066;-30.962430432241455;0
-71.55807771584705;-30.680962226470143;1
-71.55095116538989;-30.399038456023984;0
-71.54378344870554;-30.11709969978673;1
-71.52662336751722;-29.835950444350807;0
-71.49947187549152;-29.555600687959814;1
-71.44242516685897;-29.277672190378738;0
-72.52142117509624;-32.85938534241672;1
-72.47263145368449;-32.58067087248993;0
-72.43412982983375;-32.3011579287223;1
-72.39977061142025;-32.02132149035327;0
-72.36565370416943;-31.741465086772074;1
-72.3317753104543;-31.461588903266396;0
-72.29813170103571;-31.18169312411203;1
-72.26471921342296;-30.901777932621386;0
-72.25006442539846;-30.620368812455716;1
-72.24095037133952;-30.338503803167676;0
-72.23182311985572;-30.056623493744095;1
-72.21273711837213;-29.7755323682121;0
-72.18369277360452;-29.495240423025788;1
-72.12479740867785;-29.217369412195836;0
