Station;Longitud;Latitud;UE;UN;UU
BTON;-71.4872;-30.2632;-496.29706558624565;-150.02133630854465;220.3401370653964
CERN;-70.9289;-32.5581;-251.19771395835033;-84.27357587260624;71.89897639358936
CMBA;-70.999;-31.1882;-352.1746035140447;-138.9458487400812;124.04014080155531
CNBA;-71.458;-31.3982;-486.26810180634493;-174.36450338058964;226.02068321379102
JUNT;-70.0936;-29.9766;-286.18919355507603;-59.17057097702448;-118.67842087412724
LNDS;-70.5756;-32.8396;-168.3677539922147;-14.7581930106047;-39.40190637293145
LSCH;-71.246;-29.9082;-430.25827166394026;-123.15038821439133;174.52901963551707
LVIL;-71.5138;-31.9092;-476.86236205413945;-167.9375541528307;221.7438500175505
OVLL;-71.2039;-30.6037;-420.7729529543512;-144.5396921897838;192.19042939845957
PEDR;-70.6891;-30.839;-299.71966318118274;-105.43882229104858;-12.36135049020776
PFRJ;-71.6354;-30.6747;-543.7050008181757;-174.247835966703;240.12437138090363
SILL;-70.7387;-29.2549;-260.4804231942881;-82.55064457797083;-53.701453635606285
TOLO;-70.8061;-30.1699;-313.45437721718616;-112.08460766331478;31.867356272001253
ZAPA;-71.4656;-32.5528;-419.4184211021876;-143.84580259639316;221.45144729707533
