Station;Longitud;Latitud;UE;UN;UU
BTON;-71.4872;-30.2632;-493.26790817536875;-145.8183391017436;229.51018704461242
CERN;-70.9289;-32.5581;-253.42630985071628;-84.78048428189913;68.22689204807713
CMBA;-70.999;-31.1882;-352.0175660265648;-139.9872072116694;122.95574129826738
CNBA;-71.458;-31.3982;-475.4508840943352;-174.39818680143097;221.32831978923588
JUNT;-70.0936;-29.9766;-284.1306906658673;-61.45739475112668;-116.38220247401414
LNDS;-70.5756;-32.8396;-171.64965046137502;-13.79292073095251;-42.941024359435474
LSCH;-71.246;-29.9082;-424.5411761432157;-124.32720505711173;176.53325469256552
LVIL;-71.5138;-31.9092;-472.70387397913635;-168.65431949506885;217.6733116154991
OVLL;-71.2039;-30.6037;-424.42828305656207;-144.29974159565228;193.4454959800146
PEDR;-70.6891;-30.839;-302.7139765067914;-106.05128207701705;-9.640539704233143
PFRJ;-71.6354;-30.6747;-552.4719211598026;-173.2027884722086;256.10107368981926
SILL;-70.7387;-29.2549;-257.9467662422801;-80.47901796683502;-41.844605743121946
TOLO;-70.8061;-30.1699;-315.2020547253793;-115.16055429105812;34.22350276262006
ZAPA;-71.4656;-32.5528;-428.40976941016714;-144.1959607653266;221.2529336983701
