Station;Longitud;Latitud;UE;UN;UU
BTON;-71.4872;-30.2632;-499.01213933745237;-150.47108139817166;220.35819602393892
CERN;-70.9289;-32.5581;-251.54541738159304;-82.56834993529719;61.733146483015005
CMBA;-70.999;-31.1882;-350.0634512884406;-140.33373164915008;123.45316889887745
CNBA;-71.458;-31.3982;-479.7344999811696;-171.7883808178237;218.12727955024167
JUNT;-70.0936;-29.9766;-281.8509120729575;-62.32657468360567;-114.79099193194783
LNDS;-70.5756;-32.8396;-170.4721457163869;-12.179216164026148;-44.60271035404757
LSCH;-71.246;-29.9082;-425.6881916735992;-121.70264315116187;178.9106484625294
LVIL;-71.5138;-31.9092;-474.28482386509097;-166.91671065993452;218.7153423974806
OVLL;-71.2039;-30.6037;-421.67042930449713;-145.33258393642703;191.06531117059612
PEDR;-70.6891;-30.839;-299.40911502908386;-106.69141405630504;-6.791202690384602
PFRJ;-71.6354;-30.6747;-539.3285248841196;-175.3404479086363;234.1934111081393
SILL;-70.7387;-29.2549;-250.66829116100004;-80.77039173634283;-36.39815957500314
TOLO;-70.8061;-30.1699;-314.48184151744584;-113.57589374905915;38.76894544079462
ZAPA;-71.4656;-32.5528;-423.2821469079926;-144.61975504083307;216.52704596676708
