Station;Longitud;Latitud;UE;UN;UU
BTON;-71.4872;-30.2632;-474.258954453253;-149.69596634321596;253.03950371270662
CERN;-70.9289;-32.5581;-259.3136139785782;-84.34810185292511;79.13012741737963
CMBA;-70.999;-31.1882;-371.27681469602567;-136.79070997343308;114.8102659781651
CNBA;-71.458;-31.3982;-469.04261856154466;-181.94106615214736;242.24617899211495
JUNT;-70.0936;-29.9766;-287.6441259664377;-61.206567565801905;-120.03194983798839
LNDS;-70.5756;-32.8396;-179.19521696800797;-15.10171855629881;-43.03308043927776
LSCH;-71.246;-29.9082;-404.2880629844617;-127.94270313267685;165.8467379142405
LVIL;-71.5138;-31.9092;-456.5955945921795;-178.29381955542675;232.29092696873332
OVLL;-71.2039;-30.6037;-428.56199505137795;-146.330113274202;171.25673640169532
PEDR;-70.6891;-30.839;-313.35678044585524;-104.6682621990328;-19.20512016628984
PFRJ;-71.6354;-30.6747;-543.8794131983707;-168.06980578853296;315.6981436328492
SILL;-70.7387;-29.2549;-269.3953664507467;-81.0928195180131;-41.77096865380399
TOLO;-70.8061;-30.1699;-322.4414544327579;-114.69356512956884;21.511276654011905
ZAPA;-71.4656;-32.5528;-435.76348045129856;-149.9534508332926;213.5618712700017
