 -----------------------------------------------------------------------
Resumen de datos: 
1. lambda1      : 0.02
2. lambda2      : 0.02
3. lambda3      : 0.02
4. lambda4      : 0.02
5. Inv. ECM_Ue  : 5.7227632633220724e-33
6. Inv. ECM_Un  : 1.5545005979696975e-33
6. Inv. ECM_Uz  : 2.7496089116742768e-33
7. Res. ||U-AS||: 4.3067283488356126e-16
8. Res. ||S||   : 4.0
9. Res. ||FS||  : None
10. Res. Total  : 0.08000000000000043
 -----------------------------------------------------------------------
 -------------------------------------------------------
 ETAPA  9 == RESUMEN PARAMETROS GEOMETRICOS Y RESULTADOS
 -------------------------------------------------------
                                                        
 -------------------------------------------------------
INTERFASE SUPERIOR (A):                                 
 -------------------------------------------------------
Min Depth: 0.024464200000000002 km
Max Depth: 0.07314960000000001 km
                                                              
Min Dip  : 16.1863 degrees
Max Dip  : 25.489 degrees
                                                              
Min Strike : -2.92 degrees
Max Strike : 22.9 degrees
                                                              
Min Rake  : 101.12401124495022 degrees
Max Rake  : 126.53241606917447 degrees
                                                        
 -------------------------------------------------------
INTERFASE INFERIOR (B):
 -------------------------------------------------------
Min Depth: 12.562319071449437 km
Max Depth: 13.360409612973422 km
                                                              
Min Dip  : 16.1863 degrees
Max Dip  : 25.489 degrees
                                                              
Min Strike : -2.92 degrees
Max Strike : 22.9 degrees
                                                              
Min Rake  : 281.1240112449502 degrees
Max Rake  : 306.5324160691745 degrees
 -------------------------------------------------------
          VELOCIDADES INVERTIDAS                         
 -------------------------------------------------------
 -------------------------------------------------------
INTERFASE SUPERIOR (A):                                 
 -------------------------------------------------------
Max. Vel: 1.0000000000000018m/yr
Min. Vel: 0.9999999999999988m/yr
 -------------------------------------------------------
INTERFASE INFERIOR (B):                                 
 -------------------------------------------------------
Max. Vel: rm/yr
Min. Vel: am/yr
 -------------------------------------------------------
nx x ny: 8X2
rake_inv_ref_deg: 110
V_placa: 0.068
W :200000
H :12000