 -----------------------------------------------------------------------
Resumen de datos: 
1. lambda1      : 0.02
2. lambda2      : 0.02
3. lambda3      : 0.02
4. lambda4      : 0.02
5. Inv. ECM_Ue  : 9.652151389980246e-07
6. Inv. ECM_Un  : 2.7028481452496895e-06
6. Inv. ECM_Uz  : 6.951081264531764e-07
7. Res. ||U-AS||: 0.008355282315470555
8. Res. ||S||   : 4.958033904542104
9. Res. ||FS||  : None
10. Res. Total  : 0.10751596040631263
 -----------------------------------------------------------------------
 -------------------------------------------------------
 ETAPA  9 == RESUMEN PARAMETROS GEOMETRICOS Y RESULTADOS
 -------------------------------------------------------
                                                        
 -------------------------------------------------------
INTERFASE SUPERIOR (A):                                 
 -------------------------------------------------------
Min Depth: 0.06155190000000001 km
Max Depth: 0.0708233 km
                                                              
Min Dip  : 16.4416 degrees
Max Dip  : 25.6204 degrees
                                                              
Min Strike : -3.09 degrees
Max Strike : 25.11 degrees
                                                              
Min Rake  : 219.25972686231373 degrees
Max Rake  : 245.79283195982748 degrees
                                                        
 -------------------------------------------------------
INTERFASE INFERIOR (B):
 -------------------------------------------------------
Min Depth: 12.577669018191985 km
Max Depth: 13.372548691943036 km
                                                              
Min Dip  : 16.4416 degrees
Max Dip  : 25.6204 degrees
                                                              
Min Strike : -3.09 degrees
Max Strike : 25.11 degrees
                                                              
Min Rake  : 399.2597268623137 degrees
Max Rake  : 425.7928319598275 degrees
 -------------------------------------------------------
          VELOCIDADES INVERTIDAS                         
 -------------------------------------------------------
 -------------------------------------------------------
INTERFASE SUPERIOR (A):                                 
 -------------------------------------------------------
Max. Vel: 1.05225065322671m/yr
Min. Vel: 0.7547066969366215m/yr
 -------------------------------------------------------
INTERFASE INFERIOR (B):                                 
 -------------------------------------------------------
Max. Vel: rm/yr
Min. Vel: am/yr
 -------------------------------------------------------
nx x ny: 25X1
rake_inv_ref_deg: 45
V_placa: 0.068
W :200000
H :12000