lon_central;lat_central;slip_upper
-70.87177060026694;-32.89000520212313;1.0
-70.79845549340189;-32.401772803930506;1.0
-70.7459457163076;-31.911908935767;1.0
-70.6939894968285;-31.421985780087375;1.0
-70.64389204196073;-30.93189955182027;1.0
-70.63356891399349;-30.438621151175685;1.0
-70.62300848871995;-29.9453011452937;1.0
-70.57242050108647;-29.455173999831477;1.0
-71.13776875747226;-32.86908451323898;1.0
-71.06301354688152;-32.38085575244071;1.0
-71.00909349812386;-31.890995475474966;1.0
-70.9557608456406;-31.401075870842018;1.0
-70.90431978916291;-30.910993155175166;1.0
-70.8926771267969;-30.417718226560165;1.0
-70.88082941967998;-29.924401668900284;1.0
-70.82899388472728;-29.434277933689234;1.0
-71.40364020020495;-32.84759839145756;1.0
-71.32744810257712;-32.3593837503602;1.0
-71.27212080575042;-31.86953743723679;1.0
-71.21741467661;-31.37963164995791;1.0
-71.16463290314763;-30.889562609974426;1.0
-71.15167333234584;-30.396301216176177;1.0
-71.13854092877335;-29.902998072525193;1.0
-71.08546057599952;-29.41288761881504;1.0
-71.66938172518395;-32.825547567608204;1.0
-71.59175609407589;-32.33735751316414;1.0
-71.53502470505065;-31.847535521634875;1.0
-71.47894818292733;-31.357653803571004;1.0
-71.42482869971923;-30.867608588339813;1.0
-71.4105549654221;-30.374370778550446;1.0
-71.39614056530374;-29.88109100150526;1.0
-71.34181823359006;-29.391003687749915;1.0
-71.93499014668674;-32.80293279067457;1.0
-71.85593447172332;-32.31477777377869;1.0
-71.79780227789682;-31.824990446026856;1.0
-71.74035857307834;-31.33514303394338;1.0
-71.68490450929772;-30.84513177789561;1.0
-71.66931947479486;-30.351927587112677;1.0
-71.65362589196184;-29.858681115504332;1.0
-71.59806452898073;-29.368626786807837;1.0
-72.20046229694088;-32.77975482768936;1.0
-72.11998020299046;-32.29164528248082;1.0
-72.06045062251447;-31.80190294445064;1.0
-72.00164307116647;-31.312100059373037;1.0
-71.944857677221;-30.822132881682688;1.0
-71.92796432350367;-30.328972330114166;1.0
-71.9109944850897;-29.835769088435494;1.0
-71.85419714669604;-29.345757576001944;1.0
-72.46579502651088;-32.75601446362702;1.0
-72.3838902728363;-32.26796080679642;1.0
-72.32296685382171;-31.77827376752736;1.0
-72.26279891723098;-31.28852561410166;1.0
-72.20468556404285;-30.79861261807101;1.0
-72.18648698913731;-30.305505710544395;1.0
-72.16824393494208;-29.8123556083821;1.0
-72.1102137845477;-29.322396728969377;1.0
-72.73098520467916;-32.73171250129415;1.0
-72.64766168406533;-32.24372513139613;1.0
-72.58534810376449;-31.754103682362572;1.0
-72.52382336756096;-31.264420448220708;1.0
-72.4643855458271;-30.77457172067039;1.0
-72.44488496410928;-30.2815284460464;1.0
-72.42537184594408;-29.78844137751721;1.0
-72.36611215387606;-29.298544932894863;1.0
