Station;Longitud;Latitud;UE;UN;UU
BTON;-71.4872;-30.2632;-503.16082072849235;-147.7424386898778;213.86701491576903
CERN;-70.9289;-32.5581;-257.3170482688134;-84.82084158742022;73.27107096791104
CMBA;-70.999;-31.1882;-357.4952093893273;-139.67486957834683;117.86491323642015
CNBA;-71.458;-31.3982;-496.39387833629667;-173.73294885724582;239.48635623468613
JUNT;-70.0936;-29.9766;-286.0704231933657;-61.39527333902253;-118.38328209191766
LNDS;-70.5756;-32.8396;-174.01240463196083;-14.548838051671499;-42.362792922782425
LSCH;-71.246;-29.9082;-428.3989766607376;-124.45758884216899;181.20401399732643
LVIL;-71.5138;-31.9092;-485.946755694068;-166.17009653125245;235.5101083683805
OVLL;-71.2039;-30.6037;-423.55394513142005;-143.6938181689555;194.4218192848045
PEDR;-70.6891;-30.839;-308.6933403984225;-105.57972778922358;-13.549109918895407
PFRJ;-71.6354;-30.6747;-557.689272910371;-175.39377107944404;236.90126815372867
SILL;-70.7387;-29.2549;-263.62828108328387;-80.40540710173653;-46.212951792223166
TOLO;-70.8061;-30.1699;-317.2168165979893;-115.12647325280754;28.966425810734947
ZAPA;-71.4656;-32.5528;-419.34777132604876;-146.72257073493526;242.5689397106402
