Station;Longitud;Latitud;UE;UN;UU
BTON;-71.4872;-30.2632;-303.87547736054637;545.430179968026;228.80475159056263
CERN;-70.9289;-32.5581;-438.4852579088997;567.96367981257;197.07458253306692
CMBA;-70.999;-31.1882;-465.9246588320416;589.6180543770239;197.04528275347343
CMPN;-70.6858;-29.0282;-91.10921500874377;146.49098521937927;91.4257219643069
CNBA;-71.458;-31.3982;-380.88777585304103;534.1203051964435;147.08109871509518
CRZL;-71.4097;-29.1016;-409.4443606131786;375.52744418815666;-21.648031554566156
JUNT;-70.0936;-29.9766;81.26682148652833;-74.32275012927647;-6.688591398025564
LNDS;-70.5756;-32.8396;111.6223577012893;-64.45050924855335;-121.76656991040419
LSCH;-71.246;-29.9082;-388.460416984414;473.80705113236996;37.844110714433064
LVIL;-71.5138;-31.9092;-336.04865903316863;466.05423298485226;94.7718502558815
OVLL;-71.2039;-30.6037;-441.5384269094211;516.0902752835411;116.63701055073425
PEDR;-70.6891;-30.839;-481.75727892042306;587.3165826533658;181.78063641105152
PFRJ;-71.6354;-30.6747;-404.3942536338764;472.4028485147907;63.63856568256329
SILL;-70.7387;-29.2549;-571.4265223841222;492.07203009233046;137.42234075087188
TOLO;-70.8061;-30.1699;-444.29017974573014;533.6963274411137;110.55040702591387
ZAPA;-71.4656;-32.5528;-347.47742945126595;396.47517164573924;116.91193764404453
