lon_central;lat_central;slip_upper
-70.9660631505149;-32.932910183428746;1.0
-70.9055775356085;-32.542474612186524;1.0
-70.86495927640145;-32.15048499874056;1.0
-70.82471737283346;-31.758454703572845;1.0
-70.78436234906373;-31.366422775698215;1.0
-70.74436864405777;-30.97435132129144;1.0
-70.74044191596764;-30.579395177498114;1.0
-70.72928288953506;-30.184976250394065;1.0
-70.71727590686257;-29.79059196164078;1.0
-70.65509659851062;-29.400249341704722;1.0
-71.31154670328132;-32.9056411721738;1.0
-71.24863311075767;-32.515284345006854;1.0
-71.20537851786051;-32.12339242814338;1.0
-71.16256912003924;-31.731457318032632;1.0
-71.11996902167904;-31.339497646265748;1.0
-71.07789914838251;-30.947487536621953;1.0
-71.07236326348858;-30.552556756274107;1.0
-71.05947757864877;-30.15817518491999;1.0
-71.0466570185663;-29.763756230839203;1.0
-70.98471023124635;-29.373296235768784;1.0
-71.6594255385493;-32.877218691864456;1.0
-71.59480755716059;-32.48689690442027;1.0
-71.54940054476891;-32.09507743477855;1.0
-71.50454454511441;-31.7032088647849;1.0
-71.4599197593768;-31.311316448159015;1.0
-71.4158009277901;-30.919377979359517;1.0
-71.40837311032837;-30.524507740257874;1.0
-71.39354257927758;-30.130193544330258;1.0
-71.3792717344026;-29.735804069015074;1.0
-71.31627896995285;-29.345343636456747;1.0
-72.00754028838614;-32.847813899312264;1.0
-71.94152542671178;-32.45751704466298;1.0
-71.8946438751411;-32.06573014213503;1.0
-71.84828673223855;-31.673898253234416;1.0
-71.80212945406973;-31.282047050841076;1.0
-71.75636251488183;-30.89016112562864;1.0
-71.74708472282916;-30.49536094689171;1.0
-71.7301409132944;-30.10114060364512;1.0
-71.71428424713531;-29.706804367545185;1.0
-71.64953983148696;-29.316413889764846;1.0
-72.35465964284974;-32.817525119536235;1.0
-72.28724159161077;-32.427268329680324;1.0
-72.23898755487429;-32.03552037032344;1.0
-72.19127894530413;-31.64372754928006;1.0
-72.14390305263427;-31.251906554377157;1.0
-72.09687123301269;-30.860056280471877;1.0
-72.08606779925675;-30.465313684950388;1.0
-72.06750129671127;-30.07116093729988;1.0
-72.0498256312596;-29.676910238873727;1.0
-71.98320139449926;-29.286613506909614;1.0
-72.7008697976606;-32.78634681595202;1.0
-72.63206691019748;-32.3961432247484;1.0
-72.58234640509903;-32.00445614809772;1.0
-72.53326813628594;-31.612718209071723;1.0
-72.4846402931281;-31.220944334681082;1.0
-72.43620586705177;-30.82915495863247;1.0
-72.42427305684366;-30.43445192974787;1.0
-72.40441198267614;-30.040353965997394;1.0
-72.38512734520606;-29.646185345113892;1.0
-72.31646588598166;-29.25600879282123;1.0
