Station;Longitud;Latitud;UE;UN;UU
BTON;-71.4872;-30.2632;-507.3729328695531;-143.40697278146757;220.41236670095316
CERN;-70.9289;-32.5581;-255.92919706990637;-84.67527297611147;72.0864772561956
CMBA;-70.999;-31.1882;-356.16768151748636;-140.37903659384918;116.46512286130069
CNBA;-71.458;-31.3982;-494.6370482159709;-172.30757418935227;236.4402251547509
JUNT;-70.0936;-29.9766;-285.4505395557634;-62.183227754968726;-116.8851501123147
LNDS;-70.5756;-32.8396;-174.370239848163;-14.017522531114341;-43.66424512387761
LSCH;-71.246;-29.9082;-427.3335568065869;-125.02713888046065;183.3371500087878
LVIL;-71.5138;-31.9092;-484.71564951380014;-165.05808569603147;235.48045626033647
OVLL;-71.2039;-30.6037;-424.6001206230291;-144.7627201242759;196.85967599373663
PEDR;-70.6891;-30.839;-308.35816024234646;-105.80753337268291;-11.710175556155596
PFRJ;-71.6354;-30.6747;-556.7906729153594;-177.62863840466656;234.97051819158202
SILL;-70.7387;-29.2549;-261.15892044276563;-80.13995504323137;-43.06522193164333
TOLO;-70.8061;-30.1699;-319.02686569032545;-116.20298453090278;30.236464763013494
ZAPA;-71.4656;-32.5528;-419.6861420482293;-145.68106357923662;239.6169551107231
