Station;Longitud;Latitud;UE;UN;UU
BTON;-71.4872;-30.2632;505.19941213258033;278.0480913869297;-216.91564619164498
CERN;-70.9289;-32.5581;638.3745284514144;276.57221688288405;-292.6041716486449
CMBA;-70.999;-31.1882;596.5238053028114;314.7276978878517;-283.54334084776264
CNBA;-71.458;-31.3982;522.3339639292823;287.9120153418441;-238.1203211297573
JUNT;-70.0936;-29.9766;-136.65651508310864;-29.619923426576644;72.72410055403884
LNDS;-70.5756;-32.8396;-141.0053488722432;-65.60119375520107;42.17956142551095
LSCH;-71.246;-29.9082;558.4401017011714;298.430916959128;-224.37472293052164
LVIL;-71.5138;-31.9092;521.6828635895728;273.17253388363486;-222.62065946773706
OVLL;-71.2039;-30.6037;561.2661002539242;304.684831002537;-258.5016831052586
PEDR;-70.6891;-30.839;-203.84378019713913;-54.7019197086455;98.56696571171015
PFRJ;-71.6354;-30.6747;475.65127353616793;273.50772463977427;-208.52024017157632
SILL;-70.7387;-29.2549;-138.75245721941985;19.634088104604974;116.30031201279495
TOLO;-70.8061;-30.1699;-214.26515847143455;-54.073895226838644;119.05022259528023
ZAPA;-71.4656;-32.5528;545.7116709186496;211.48445947471785;-186.99360712052214
