Station;Longitud;Latitud;UE;UN;UU
BTON;-71.4872;-30.2632;-397.09816087282445;467.6613470850061;-10.789895144096853
CERN;-70.9289;-32.5581;-410.5342498817503;523.9943115552787;178.72602512849411
CMBA;-70.999;-31.1882;-452.28781004223373;570.4888200203695;184.07874847029652
CMPN;-70.6858;-29.0282;-118.7373457482194;168.66490280978687;82.13761369719477
CNBA;-71.458;-31.3982;-365.21606139876434;518.1637805853002;147.94222819525842
CRZL;-71.4097;-29.1016;-385.9063320735367;336.58635453514006;-44.858180610480005
JUNT;-70.0936;-29.9766;84.20833265338905;-75.4997115561861;-8.817441966878988
LNDS;-70.5756;-32.8396;108.68769096165443;-57.60737214091795;-115.14187145298239
LSCH;-71.246;-29.9082;-428.36227609273266;473.4061121425515;94.09697931122774
LVIL;-71.5138;-31.9092;-338.98159492794343;449.07010350039855;101.91260435377126
OVLL;-71.2039;-30.6037;-456.24304367581993;527.3930796175563;162.06757883140043
PEDR;-70.6891;-30.839;-479.26589495110625;587.7844939246705;191.58554519783343
PFRJ;-71.6354;-30.6747;-409.6488683019938;482.5470084749698;97.74606494609554
SILL;-70.7387;-29.2549;-495.68790938505407;424.38595577030134;83.77130860667043
TOLO;-70.8061;-30.1699;-315.24059944181613;662.3684906268323;355.08611763751657
ZAPA;-71.4656;-32.5528;-348.3449757213009;417.6713345706443;137.10694081584435
