Station;Longitud;Latitud;UE;UN;UU
BTON;-71.4872;-30.2632;-505.110610799984;-138.96067828926098;191.0108900989277
CERN;-70.9289;-32.5581;-310.3342117852142;-96.21764924460163;70.22972625845037
CMBA;-70.999;-31.1882;-374.25590479523026;-135.89607641822664;107.94562358210075
CNBA;-71.458;-31.3982;-484.6844558827501;-164.53573595968328;249.99199469816685
JUNT;-70.0936;-29.9766;-292.08076536949574;-66.19504365645315;-123.47084505052688
LNDS;-70.5756;-32.8396;-216.51011127322064;-12.742643763857162;-46.06005582346067
LSCH;-71.246;-29.9082;-379.9396824064749;-139.83183668763877;123.76644059208061
LVIL;-71.5138;-31.9092;-470.43153695301856;-177.98140210348268;263.2397749079543
OVLL;-71.2039;-30.6037;-460.48481497901537;-136.92036736981328;167.10657459195687
PEDR;-70.6891;-30.839;-334.01575335656423;-103.4376759079374;-29.71130583405489
PFRJ;-71.6354;-30.6747;-573.4533245967867;-166.69326078710307;282.17019748078496
SILL;-70.7387;-29.2549;-273.668967336679;-57.7543219794252;-65.8801174453394
TOLO;-70.8061;-30.1699;-332.0002062091206;-128.19447428652543;0.32455255738412375
ZAPA;-71.4656;-32.5528;-526.5790506872551;-170.56185136338846;321.932681608275
