Station;Longitud;Latitud;UE;UN;UU
BTON;-71.4872;-30.2632;-465.40430784959693;-146.626306078567;180.1103499361635
CERN;-70.9289;-32.5581;-307.5583736077321;-99.79765435569642;74.32640824126976
CMBA;-70.999;-31.1882;-378.42000031587196;-130.2755011408822;106.76765582623074
CNBA;-71.458;-31.3982;-468.88853596489855;-165.24887725713867;254.22934446441437
JUNT;-70.0936;-29.9766;-290.5913449300859;-63.81786411205873;-126.60886249286013
LNDS;-70.5756;-32.8396;-215.7854880635706;-14.929424634404356;-44.256165347613596
LSCH;-71.246;-29.9082;-375.6302941899372;-115.81193144521434;133.11484679484195
LVIL;-71.5138;-31.9092;-478.0586467139199;-168.23982233618048;261.68795315526995
OVLL;-71.2039;-30.6037;-459.3733671317353;-142.4713448386299;154.42699167267048
PEDR;-70.6891;-30.839;-336.9887931631155;-104.8200335018629;-36.08902839419031
PFRJ;-71.6354;-30.6747;-588.1656201387145;-156.4904824810816;268.97926292420743
SILL;-70.7387;-29.2549;-267.4887905436757;-52.44790076327271;-58.715038422570146
TOLO;-70.8061;-30.1699;-319.83689894920775;-125.96158496847981;6.182389718851232
ZAPA;-71.4656;-32.5528;-516.0176091275926;-175.01661441663057;308.9120873268639
