 -----------------------------------------------------------------------
Resumen de datos: 
1. lambda1      : 0.02
2. lambda2      : 0.02
3. lambda3      : 0.02
4. lambda4      : 0.02
5. Inv. ECM_Ue  : 6.398004864370116e-05
6. Inv. ECM_Un  : 3.394371858793588e-05
6. Inv. ECM_Uz  : 1.4144149730870328e-05
7. Res. ||U-AS||: 0.042344854131288634
8. Res. ||S||   : 6.295957025745445
9. Res. ||FS||  : None
10. Res. Total  : 0.16826399464619754
 -----------------------------------------------------------------------
 -------------------------------------------------------
 ETAPA  9 == RESUMEN PARAMETROS GEOMETRICOS Y RESULTADOS
 -------------------------------------------------------
                                                        
 -------------------------------------------------------
INTERFASE SUPERIOR (A):                                 
 -------------------------------------------------------
Min Depth: 0.0103172 km
Max Depth: 0.0710479 km
                                                              
Min Dip  : 8.08627 degrees
Max Dip  : 25.6204 degrees
                                                              
Min Strike : -6.25 degrees
Max Strike : 25.09 degrees
                                                              
Min Rake  : 213.93605285614836 degrees
Max Rake  : 246.03661598724273 degrees
                                                        
 -------------------------------------------------------
INTERFASE INFERIOR (B):
 -------------------------------------------------------
Min Depth: 12.130826650287082 km
Max Depth: 13.372548691943036 km
                                                              
Min Dip  : 8.08627 degrees
Max Dip  : 25.6204 degrees
                                                              
Min Strike : -6.25 degrees
Max Strike : 25.09 degrees
                                                              
Min Rake  : 393.93605285614836 degrees
Max Rake  : 426.0366159872427 degrees
 -------------------------------------------------------
          VELOCIDADES INVERTIDAS                         
 -------------------------------------------------------
 -------------------------------------------------------
INTERFASE SUPERIOR (A):                                 
 -------------------------------------------------------
Max. Vel: 1.448985322716816m/yr
Min. Vel: 0.10532279730332643m/yr
 -------------------------------------------------------
INTERFASE INFERIOR (B):                                 
 -------------------------------------------------------
Max. Vel: rm/yr
Min. Vel: am/yr
 -------------------------------------------------------
nx x ny: 10X6
rake_inv_ref_deg: 45
V_placa: 0.068
W :200000
H :12000