Station;Longitud;Latitud;UE;UN;UU
BTON;-71.4872;-30.2632;-11.62763008461224;0.9825394971876849;21.70637737077495
CERN;-70.9289;-32.5581;32.25445369129922;-27.733066867299357;86.2374098971058
CMBA;-70.999;-31.1882;-9.057939951057907;-7.749787186382699;36.35658429189374
CMPN;-70.6858;-29.0282;-3.8942347023231316;-0.6682059287964862;14.250214695245282
CNBA;-71.458;-31.3982;-19.572790553369508;-6.774661504766085;39.16026888929054
CRZL;-71.4097;-29.1016;-7.186307063880949;1.6072342045427763;13.827300869489974
CUVI;-71.1342;-33.3534;894.4404883204622;-273.4199976081529;-103.85613658045791
DGF1;-70.6617;-33.4573;950.9037587097578;79.00335487249819;422.9495405419389
ILOC;-72.179;-34.9488;1363.7047848635;-303.63729785787496;-2293.3336210848797
JUNT;-70.0936;-29.9766;0.01994829694462654;-2.2428217807405035;19.73905211374775
LNDS;-70.5756;-32.8396;198.91743288210623;69.40593413036318;117.57780856347946
LSCH;-71.246;-29.9082;-8.331766959810942;-0.010759531126157754;19.24812507325124
LVIL;-71.5138;-31.9092;-28.42325283428269;-19.761997774197123;53.10927975956856
MPLA;-71.1505;-33.6778;1277.7417120585303;-234.01538756513202;-60.73741322606931
NAVI;-71.8246;-33.9527;1725.3103216515242;-277.55317158689763;-1751.828304025392
OVLL;-71.2039;-30.6037;-10.255204488075806;-2.4500391981067566;26.459802322499346
PCMU;-71.9612;-34.4962;1498.4075369535265;-423.20924500518777;-1523.6801564147231
PEDR;-70.6891;-30.839;-4.080219929491205;-5.156631512685908;30.083344547890732
PFRJ;-71.6354;-30.6747;-15.77843513480549;1.5969700909539275;25.544412299737193
PMQE;-71.6298;-34.5481;1266.2658267116424;-344.27513315672513;-336.4957263966082
RCSD;-71.6135;-33.6544;1604.6678816251092;-415.1536341279477;-1538.2257754662166
SANP;-71.4805;-33.8735;1538.16449697498;-276.64786647025846;-878.2108634977476
SBLL;-70.7807;-34.7921;1336.252006359226;-331.5989032929137;465.65548711904194
SILL;-70.7387;-29.2549;-4.288532758896379;-0.8249837384972228;15.422772159743857
TLGT;-70.9888;-33.7763;1310.615203084866;-182.01130134224772;452.40161912925913
TOLO;-70.8061;-30.1699;-5.451478074239606;-2.4884065029332;22.124314532552557
TRST;-70.2738;-28.8363;-2.197270950720532;-1.0601376362655397;13.362744206210483
UAIB;-70.5098;-33.4932;932.5605889506444;78.03718030782356;382.77356383296365
VALL;-70.7644;-28.572;-3.8716210857452893;-0.09804763395473694;12.193400636157998
VALN;-71.635;-33.0279;81.80916027992576;-713.7974476426533;-378.16465070221375
VNEV;-70.2491;-33.3536;638.8839656208277;109.18151996853888;210.60701140873303
ZAPA;-71.4656;-32.5528;-35.233532896535166;-106.51167172836723;72.01095064233428
