lon_central;lat_central;slip_upper
-70.95593402968322;-32.93276636039885;0.7161852084881165
-70.89425292553275;-32.54241719896173;1.1706165788666458
-70.85209055191612;-32.15054308888863;0.8720176057157762
-70.81028741844477;-31.758630752859112;1.0914281596490676
-70.76883512184457;-31.366680674836886;1.090542035222475
-70.72772546285842;-30.97469333552487;0.95930488074299
-70.72379323957341;-30.579733297920036;1.0179179040245456
-70.71112200376136;-30.185431624562895;0.9532020087506821
-70.6983066892229;-29.791108225442827;1.0655691316333749
-70.6355848535031;-29.40080576489606;0.9500118078195924
-71.38167482954279;-32.899020853343856;1.2782322642804145
-71.31814437445007;-32.508680393206;0.839561426725917
-71.27416100218505;-32.116814900444325;0.9938957654240531
-71.23057186839951;-31.724911106414297;1.2668920139619368
-71.18736796806658;-31.332969497555805;0.8762708354237065
-71.14454051727861;-30.940990556994684;0.9717744053462888
-71.1389110172662;-30.546038841880073;1.0344778536802655
-71.12457868438786;-30.151745436623422;0.9205505883883782
-71.1101348846077;-29.757430249918162;1.0940256186536765
-71.0458330141294;-29.36713592027227;0.8703788204573596
-71.80708561896049;-32.863826611409074;0.6212188758878833
-71.74171264445103;-32.47351634411001;0.7815603684405295
-71.69591468544101;-32.08168077935748;1.870980695740796
-71.65054584611629;-31.68980666170204;0.9400369168789279
-71.60559652310765;-31.29789448421384;0.9331402492684865
-71.56105735115567;-30.90594473649488;1.0611620803258477
-71.55373606106387;-30.511021973484816;0.9675597863125164
-71.53774815747705;-30.116757306085255;1.0121562009585405
-71.52168132520906;-29.722470645310455;1.0273915785003727
-71.45580538454776;-29.332204606475674;0.8707409439773198
-72.23215329232148;-32.827186700732845;1.5355252900230882
-72.16494507889777;-32.43692806512435;2.1450146038004974
-72.11733938268044;-32.04514368767807;0.0
-72.07019755707026;-31.65332033062433;1.6721116264829956
-72.02350940420176;-31.26145849778502;0.3961750938206438
-71.97726498118045;-30.86955868926001;1.1074629213998979
-71.96825777885154;-30.474685461389033;0.890235098481043
-71.95062020950803;-30.08046995615055;1.0051456797089307
-71.9329361647565;-29.686232090468938;0.9736074169840109
-71.8654924702742;-29.296014459079014;1.8608332657524025
-72.65686486262472;-32.789104306003686;0.0
-72.58782913536487;-32.398918684567285;0.0
-72.53842298496045;-32.00720669875812;0.0
-72.48951531280585;-31.61545513293202;0.0
-72.44109533081419;-31.223664505747575;3.7506584667333773
-72.39315252258415;-30.83183533178904;0.0
-72.3824656736241;-30.437032172373094;1.2915292427707707
-72.36318471873463;-30.042886205105884;1.7633374013821164
-72.34388964553919;-29.6487173563801;0.0
-72.27488486214321;-29.25856820293623;0.0
