 -----------------------------------------------------------------------
Resumen de datos: 
1. lambda1      : 0.02
2. lambda2      : 0.02
3. lambda3      : 0.02
4. lambda4      : 0.02
5. Inv. ECM_Ue  : 3.505192498784769e-32
6. Inv. ECM_Un  : 3.549213754656477e-33
6. Inv. ECM_Uz  : 2.2246425385518498e-32
7. Res. ||U-AS||: 9.381759209813859e-16
8. Res. ||S||   : 8.233572002533588
9. Res. ||FS||  : None
10. Res. Total  : 0.16467144005067272
 -----------------------------------------------------------------------
 -------------------------------------------------------
 ETAPA  9 == RESUMEN PARAMETROS GEOMETRICOS Y RESULTADOS
 -------------------------------------------------------
                                                        
 -------------------------------------------------------
INTERFASE SUPERIOR (A):                                 
 -------------------------------------------------------
Min Depth: 0.011315500000000001 km
Max Depth: 0.0735447 km
                                                              
Min Dip  : 9.28971 degrees
Max Dip  : 25.489 degrees
                                                              
Min Strike : -4.74 degrees
Max Strike : 25.03 degrees
                                                              
Min Rake  : 99.80200560996477 degrees
Max Rake  : 128.21133739684808 degrees
                                                        
 -------------------------------------------------------
INTERFASE INFERIOR (B):
 -------------------------------------------------------
Min Depth: 12.170790373484428 km
Max Depth: 13.360409612973422 km
                                                              
Min Dip  : 9.28971 degrees
Max Dip  : 25.489 degrees
                                                              
Min Strike : -4.74 degrees
Max Strike : 25.03 degrees
                                                              
Min Rake  : 279.80200560996474 degrees
Max Rake  : 308.2113373968481 degrees
 -------------------------------------------------------
          VELOCIDADES INVERTIDAS                         
 -------------------------------------------------------
 -------------------------------------------------------
INTERFASE SUPERIOR (A):                                 
 -------------------------------------------------------
Max. Vel: 3.7506584667333773m/yr
Min. Vel: 0.0m/yr
 -------------------------------------------------------
INTERFASE INFERIOR (B):                                 
 -------------------------------------------------------
Max. Vel: rm/yr
Min. Vel: am/yr
 -------------------------------------------------------
nx x ny: 10X5
rake_inv_ref_deg: 110
V_placa: 0.068
W :200000
H :12000