-87.1481   10.7584
-87.1435   10.7401
-87.0780   10.6575
-87.0056   10.5841
-86.9378   10.5084
-86.8607   10.4304
-86.8000   10.3454
-86.7415   10.2628
-86.6714   10.1571
-86.6107   10.0675
-86.5149    9.9847
-86.4191    9.9043
-86.3163    9.8238
-86.2182    9.7296
-86.1364    9.6559
-86.0406    9.5616
-85.9915    9.4764
-85.9798    9.4327
-85.9588    9.4050
-85.8583    9.2922
-85.7695    9.2116
-85.6364    9.1402
-85.4869    9.0803
-85.3561    9.0251
-85.2487    8.9882
-85.0805    8.9330
-84.9334    8.8685
-84.8236    8.8224
-84.7302    8.7878
-84.6671    8.7625
-84.5807    8.7256
-84.5176    8.6910
-84.4639    8.6495
-84.3915    8.6010
-84.3120    8.5411
-84.2186    8.4718
-84.0855    8.4095
-83.9967    8.3657
-83.8893    8.3057
-83.7841    8.2387
-83.6930    8.1810
-83.5879    8.1140
-83.4968    8.0563
-83.3753    7.9778
-83.2609    7.8923
-83.1931    7.8298
-83.1020    7.7327
-82.9945    7.6495
-82.9174    7.5847
-82.8357    7.5292
-82.7375    7.4459
-82.6394    7.3626
-82.5109    7.2770
-82.3965    7.2052
-82.3568    7.1728
-82.2540    7.1080