Station;Longitud;Latitud;UE;UN;UU
BTON;-71.4872;-30.2632;-237.6856799778801;-73.40352038673025;70.53662383032695
CERN;-70.9289;-32.5581;-134.75333093782623;-59.11912116888263;23.493168229485008
CMBA;-70.999;-31.1882;-186.30287620377933;-61.723904766062574;48.83182781969346
CNBA;-71.458;-31.3982;-258.2471672805522;-73.50256765712396;150.72453462949892
JUNT;-70.0936;-29.9766;-138.8113226734102;-31.161230798419307;-58.34562502833007
LNDS;-70.5756;-32.8396;-111.37522480781902;-14.040228375009931;-33.58003499492919
LSCH;-71.246;-29.9082;-206.30625288478822;-54.73210494159911;110.43246537433579
LVIL;-71.5138;-31.9092;-252.19143353251022;-75.52020640275424;72.50542525574433
OVLL;-71.2039;-30.6037;-222.93054619039114;-57.35403449617251;120.21975309042391
PEDR;-70.6891;-30.839;-146.49015651257662;-55.575771307815536;-2.015820463189109
PFRJ;-71.6354;-30.6747;-274.1701892203283;-84.27841234905603;184.38796969587784
SILL;-70.7387;-29.2549;-83.74512606186599;-47.225164465515945;-29.398541970128882
TOLO;-70.8061;-30.1699;-150.68091385883372;-62.80490552293393;14.081105260833308
ZAPA;-71.4656;-32.5528;-201.18930066315613;-96.91247780622271;74.95560898757971
