Station;Longitud;Latitud;UE;UN;UU
BTON;-71.4872;-30.2632;-497.58408341100295;-159.43156272656384;211.64414869667849
CERN;-70.9289;-32.5581;-246.91123888356046;-64.5226271404308;-23.75410457759488
CMBA;-70.999;-31.1882;-334.9384028584019;-135.1850570691684;53.54780068118838
CNBA;-71.458;-31.3982;-474.4857751304074;-178.1235078235255;201.60568011936653
JUNT;-70.0936;-29.9766;-277.9616698913391;-50.143124512992316;-95.0684716218635
LNDS;-70.5756;-32.8396;-185.81374098329255;7.276552771985134;-68.37849757937173
LSCH;-71.246;-29.9082;-425.0140076440503;-134.9177854999416;156.84843370763383
LVIL;-71.5138;-31.9092;-469.0470096298309;-168.01123574688916;195.5333750039415
OVLL;-71.2039;-30.6037;-408.68227680291983;-151.47177386027593;154.84691679115787
PEDR;-70.6891;-30.839;-308.16743662332277;-98.24211395528513;-72.7964634375625
PFRJ;-71.6354;-30.6747;-550.6177039237073;-182.8291309261003;236.21216966504412
SILL;-70.7387;-29.2549;-259.9677745262359;-91.22632788605034;-65.54216350311575
TOLO;-70.8061;-30.1699;-312.29013108756385;-116.92950494588727;-13.564709419466556
ZAPA;-71.4656;-32.5528;-406.01317185253345;-137.06424027013009;192.98032209243084
